<?xml version="1.0" encoding="UTF-8"?>
<svg xmlns="http://www.w3.org/2000/svg" xmlns:xlink="http://www.w3.org/1999/xlink" width="90" height="90" viewBox="0 0 90 90">
<path fill-rule="evenodd" fill="rgb(100%, 33.3%, 49.8%)" fill-opacity="1" stroke-width="2" stroke-linecap="butt" stroke-linejoin="round" stroke="rgb(66.7%, 0%, 0%)" stroke-opacity="1" stroke-miterlimit="10" d="M 139.265625 772 C 139.265625 795.894531 119.894531 815.265625 96 815.265625 C 72.105469 815.265625 52.734375 795.894531 52.734375 772 C 52.734375 748.105469 72.105469 728.734375 96 728.734375 C 119.894531 728.734375 139.265625 748.105469 139.265625 772 Z M 139.265625 772 " transform="matrix(1, 0, 0, -1, -51, 817)"/>
</svg>
